[
  {
    "request": {
      "body": "{\"from\":\"+15551234567\",\"text\":\"Hello from Telnyx!\",\"to\":\"+15557654321\"}",
      "headers": {
        "authorization": "Bearer KEY017F1A3E267587A4B973275EB6E11C4B_iaEgJuOqroB66LPQMKd4Q4",
        "content-type": "application/json"
      },
      "method": "post",
      "options": [],
      "request_body": "",
      "url": "https://api.telnyx.com/v2/messages"
    },
    "response": {
      "binary": false,
      "body": "{\n  \"data\": {\n    \"record_type\": \"message\",\n    \"direction\": \"outbound\",\n    \"id\": \"40317f32-f113-4fab-bfba-cbfe4f263f07\",\n    \"type\": \"SMS\",\n    \"organization_id\": \"3435bbae-3a2f-4914-96f5-a9d5adc8c63a\",\n    \"messaging_profile_id\": \"40017f1a-3e2f-4cb9-9a65-1951873a3bff\",\n    \"from\": {\n      \"phone_number\": \"+15551234567\",\n      \"carrier\": \"Telnyx\",\n      \"line_type\": \"Wireless\"\n    },\n    \"to\": [\n      {\n        \"phone_number\": \"+15557654321\",\n        \"status\": \"queued\",\n        \"carrier\": \"AERIAL COMMUNICATIONS, INC.\",\n        \"line_type\": \"Wireless\"\n      }\n    ],\n    \"cc\": [],\n    \"text\": \"Hello from Telnyx!\",\n    \"media\": [],\n    \"webhook_url\": \"http://telnyxwebhooks.com:8084/9db57255-05cf-4487-bc47-c5f0b9841d66\",\n    \"webhook_failover_url\": \"\",\n    \"encoding\": \"GSM-7\",\n    \"parts\": 1,\n    \"tags\": [],\n    \"cost\": {\n      \"amount\": \"0.0055\",\n      \"currency\": \"USD\"\n    },\n    \"received_at\": \"2022-02-25T22:12:14.458+00:00\",\n    \"sent_at\": null,\n    \"completed_at\": null,\n    \"valid_until\": \"2022-02-25T23:12:14.458+00:00\",\n    \"errors\": []\n  }\n}",
      "headers": {
        "Date": "Fri, 25 Feb 2022 22:12:14 GMT",
        "Content-Type": "application/json; charset=utf-8",
        "Content-Length": "1062",
        "Connection": "keep-alive",
        "CF-Cache-Status": "DYNAMIC",
        "Expect-CT": "max-age=604800, report-uri=\"https://report-uri.cloudflare.com/cdn-cgi/beacon/expect-ct\"",
        "Server": "cloudflare",
        "CF-RAY": "6e344625bed067ce-MIA"
      },
      "status_code": 200,
      "type": "ok"
    }
  }
]
